code
int find_max(int arr[], int n) { int max = arr[0]; for (int i = 1; i < n; i++) { if (arr[i] > max) { max = arr[i]; } } return max; }
int find_max_index(int arr[], int n) { int max_index = 0; int max = arr[0]; for (int i = 1; i < n; i++) { if (arr[i] > max) { max_index = i; max = arr[i]; } } return max_index; }
void bubble_sort(int arr[], int n) { bool swapped = true; while (swapped) { swapped = false; for (int i = 0; i < n - 1; i++) { if (arr[i] > arr[i + 1]) { int temp = arr[i]; arr[i] = arr[i + 1]; arr[i + 1] = temp; swapped = true; } } } }
void selection_sort(int arr[], int n) { for (int i = 0; i < n - 1; i++) { int min_index = i; for (int j = i + 1; j < n; j++) { if (arr[j] < arr[min_index]) { min_index = j; } } int temp = arr[i]; arr[i] = arr[min_index]; arr[min_index] = temp; } }
void insertion_sort(int arr[], int n) { for (int i = 1; i < n; i++) { int key = arr[i]; int j = i - 1; while (j >= 0 && arr[j] > key) { arr[j + 1] = arr[j]; j--; } arr[j + 1] = key; } }
int binary_search(int arr[], int n, int target) { int left = 0; int right = n - 1; while (left <= right) { int mid = (left + right) / 2; if (arr[mid] == target) { return mid; } else if (arr[mid] < target) { left = mid + 1; } else { right = mid - 1; } } return -1; }
int linear_search(int arr[], int n, int target) { for (int i = 0; i < n; i++) { if (arr[i] == target) { return i; } } return -1; }
int factorial(int n) { if (n == 0) { return 1; } else { return n * factorial(n - 1); } }
int fibonacci(int n) { if (n <= 1) { return n; } else { return fibonacci(n - 1) + fibonacci(n - 2); } }
int gcd(int a, int b) { if (b == 0) { return a; } else { return gcd(b, a % b); } }
int lcm(int a, int b) { return (a * b) / gcd(a, b); }
int power(int base, int exponent) { int result = 1; for (int i = 0; i < exponent; i++) { result *= base; } return result; }
int count_digits(int n) { int count = 0; while (n != 0) { n /= 10; count++; } return count; }
int sum_digits(int n) { int sum = 0; while (n != 0) { sum += n % 10;
