id,code,label
1,int x = 5;\nint y = 10;\nint z = x + y;,1
2,for(int i=0;i<10;i++)\n{\n  printf("Iteration %d\n", i);\n},0
3,void swap(int *a, int *b)\n{\n  int temp = *a;\n  *a = *b;\n  *b = temp;\n},1
4,int binary_search(int arr[], int low, int high, int x)\n{\n  while (low <= high)\n  {\n    int mid = low + (high - low) / 2;\n    if (arr[mid] == x)\n      return mid;\n    else if (arr[mid] < x)\n      low = mid + 1;\n    else\n      high = mid - 1;\n  }\n  return -1;\n},1
5,void bubble_sort(int arr[], int n)\n{\n  for (int i = 0; i < n-1; i++)\n  {\n    for (int j = 0; j < n-i-1; j++)\n    {\n      if (arr[j] > arr[j+1])\n      {\n        int temp = arr[j];\n        arr[j] = arr[j+1];\n        arr[j+1] = temp;\n      }\n    }\n  }\n},1
